-------------------------------------------------------------------------------
Test set: Verify the links in the site’s footer.
-------------------------------------------------------------------------------
Tests run: 1, Failures: 0, Errors: 0, Skipped: 0, Time elapsed: 14.428 s - in Verify the links in the site’s footer.
